{
  "changes": [
    {
      "description": "Bump bitbucket-pipes-toolkit to fix vulnerabilities.",
      "type": "minor"
    }
  ],
  "created_at": "2023-09-12T15:36:50.238906+00:00",
  "version": "0.6.0"
}